%YAML 1.1
%TAG !u! tag:unity3d.com,2011:
--- !u!114 &11400000
MonoBehaviour:
  m_ObjectHideFlags: 0
  m_CorrespondingSourceObject: {fileID: 0}
  m_PrefabInstance: {fileID: 0}
  m_PrefabAsset: {fileID: 0}
  m_GameObject: {fileID: 0}
  m_Enabled: 1
  m_EditorHideFlags: 0
  m_Script: {fileID: 11500000, guid: 4980422671e414a4f9e442201fc09e16, type: 3}
  m_Name: BasicWeapon
  m_EditorClassIdentifier: 
  currentWeaponSprite: {fileID: 21300000, guid: ad7358466826c9147a5ec43f4cb14d62, type: 3}
  bulletPrefab: {fileID: 4068457507623802572, guid: 9bbcf93915512f64aa9ae1bb5566c6b6, type: 3}
  bulletSpawn: {fileID: 0}
  magSize: 7
  currentAmmo: 0
  ammoReserves: 7
  fireRate: 1
  damage: 20
  weaponType: Pistol
  isMagEmpty: 1
