%YAML 1.1
%TAG !u! tag:unity3d.com,2011:
--- !u!162 &1
EditorUserSettings:
  m_ObjectHideFlags: 0
  serializedVersion: 4
  m_ConfigSettings:
    RecentlyUsedScenePath-0:
      value: 22424703114646760c0702623d265105580216233831
      flags: 0
    RecentlyUsedScenePath-1:
      value: 224247031146467c0c03090d06264d5025141d242966333e243d04
      flags: 0
    RecentlyUsedScenePath-2:
      value: 224247031146466c04003f21152d5a5e0319113e35
      flags: 0
    RecentlyUsedScenePath-3:
      value: 224247031146467c0c03091113265115580216233831
      flags: 0
    vcSharedLogLevel:
      value: 0d5e400f0650
      flags: 0
  m_VCAutomaticAdd: 1
  m_VCDebugCom: 0
  m_VCDebugCmd: 0
  m_VCDebugOut: 0
  m_SemanticMergeMode: 2
  m_VCShowFailedCheckout: 1
  m_VCOverwriteFailedCheckoutAssets: 1
  m_VCProjectOverlayIcons: 1
  m_VCHierarchyOverlayIcons: 1
  m_VCOtherOverlayIcons: 1
  m_VCAllowAsyncUpdate: 1
